rock-09.0-nghtly-py3
Salt install method: onedir
# salt-call --versions-report
Salt Version:
          Salt: 3005+494.ga1a07d1c8c
 
Dependency Versions:
          cffi: 1.14.6
      cherrypy: 18.6.1
      dateutil: 2.8.1
     docker-py: Not Installed
         gitdb: Not Installed
     gitpython: Not Installed
        Jinja2: 3.1.0
       libgit2: Not Installed
      M2Crypto: Not Installed
          Mako: Not Installed
       msgpack: 1.0.2
  msgpack-pure: Not Installed
  mysql-python: Not Installed
     pycparser: 2.21
      pycrypto: Not Installed
  pycryptodome: 3.9.8
        pygit2: Not Installed
        Python: 3.9.14 (main, Sep 27 2022, 00:00:00)
  python-gnupg: 0.4.8
        PyYAML: 5.4.1
         PyZMQ: 23.2.0
         smmap: Not Installed
       timelib: 0.2.4
       Tornado: 4.5.3
           ZMQ: 4.3.4
 
System Versions:
          dist: rocky 9.1 Blue Onyx
        locale: ascii
       machine: x86_64
       release: 5.4.109+
        system: Linux
       version: Rocky Linux 9.1 Blue Onyx
 
# salt-call --local grains.item init kernel kernelrelease kernelversion locale_info lsb_distrib_codename lsb_distrib_id lsb_distrib_release os os_family osarch osbuild oscodename osfinger osfullname osmajorrelease osmanufacturer osrelease osrelease_info osversion pythonexecutable pythonpath pythonversion saltpath saltversion saltversioninfo systemd virtual virtual_subtype zmqversion
local:
    ----------
    init:
        unknown
    kernel:
        Linux
    kernelrelease:
        5.4.109+
    kernelversion:
        #1 SMP Wed Jun 16 20:00:10 PDT 2021
    locale_info:
        ----------
        defaultencoding:
            None
        defaultlanguage:
            None
        detectedencoding:
            ascii
        timezone:
            UTC
    lsb_distrib_codename:
        Rocky Linux 9.1 (Blue Onyx)
    lsb_distrib_id:
        Rocky Linux
    lsb_distrib_release:
        9.1
    os:
        Rocky
    os_family:
        RedHat
    osarch:
        x86_64
    osbuild:
    oscodename:
        Rocky Linux 9.1 (Blue Onyx)
    osfinger:
        Rocky Linux-9
    osfullname:
        Rocky Linux
    osmajorrelease:
        9
    osmanufacturer:
    osrelease:
        9.1
    osrelease_info:
        - 9
        - 1
    osversion:
    pythonexecutable:
        /opt/saltstack/salt/run/run
    pythonpath:
        - /opt/saltstack/salt/pypath/lib/python3.9/site-packages
        - /opt/saltstack/salt/run/base_library.zip
        - /opt/saltstack/salt/run/lib-dynload
        - /opt/saltstack/salt/run
    pythonversion:
        - 3
        - 9
        - 14
        - final
        - 0
    saltpath:
        /opt/saltstack/salt/run/salt
    saltversion:
        3005+494.ga1a07d1c8c
    saltversioninfo:
        - 3005
    systemd:
        ----------
        features:
            +PAM +AUDIT +SELINUX -APPARMOR +IMA +SMACK +SECCOMP +GCRYPT +GNUTLS +OPENSSL +ACL +BLKID +CURL +ELFUTILS -FIDO2 +IDN2 -IDN -IPTC +KMOD +LIBCRYPTSETUP +LIBFDISK +PCRE2 -PWQUALITY +P11KIT -QRENCODE +BZIP2 +LZ4 +XZ +ZLIB +ZSTD -BPF_FRAMEWORK +XKBCOMMON +UTMP +SYSVINIT default-hierarchy=unified
        version:
            250
    virtual:
        container
    virtual_subtype:
        Docker
    zmqversion:
        4.3.4
# salt-call --local pkg.list_pkgs
local:
    ----------
    acl:
        2.3.1-3.el9
    alternatives:
        1.20-2.el9
    audit-libs:
        3.0.7-103.el9
    basesystem:
        11-13.el9
    bash:
        5.1.8-5.el9
    binutils:
        2.35.2-24.el9
    binutils-gold:
        2.35.2-24.el9
    bzip2-libs:
        1.0.8-8.el9
    ca-certificates:
        2022.2.54-90.2.el9
    chkconfig:
        1.20-2.el9
    coreutils-single:
        8.32-32.el9
    cracklib:
        2.9.6-27.el9
    cracklib-dicts:
        2.9.6-27.el9
    crypto-policies:
        20220815-1.git0fbe86f.el9
    crypto-policies-scripts:
        20220815-1.git0fbe86f.el9
    cryptsetup-libs:
        2.4.3-5.el9
    curl:
        7.76.1-19.el9
    cyrus-sasl-lib:
        2.1.27-20.el9
    dbus:
        1:1.12.20-6.el9
    dbus-broker:
        28-7.el9
    dbus-common:
        1:1.12.20-6.el9
    dbus-libs:
        1:1.12.20-6.el9
    dejavu-sans-fonts:
        2.37-18.el9
    device-mapper:
        9:1.02.185-3.el9
    device-mapper-libs:
        9:1.02.185-3.el9
    dmidecode:
        1:3.3-7.el9
    dnf:
        4.12.0-4.el9
    dnf-data:
        4.12.0-4.el9
    dnf-plugins-core:
        4.1.0-3.el9
    elfutils-debuginfod-client:
        0.187-5.el9
    elfutils-default-yama-scope:
        0.187-5.el9
    elfutils-libelf:
        0.187-5.el9
    elfutils-libs:
        0.187-5.el9
    emacs-filesystem:
        1:27.2-6.el9
    expat:
        2.4.9-1.el9_1
    file-libs:
        5.39-10.el9
    filesystem:
        3.16-2.el9
    findutils:
        1:4.8.0-5.el9
    fonts-filesystem:
        1:2.0.5-7.el9.1
    gawk:
        5.1.0-6.el9
    gdbm-libs:
        1:1.19-4.el9
    git:
        2.31.1-2.el9.2
    git-core:
        2.31.1-2.el9.2
    git-core-doc:
        2.31.1-2.el9.2
    glib2:
        2.68.4-5.el9
    glibc:
        2.34-40.el9
    glibc-common:
        2.34-40.el9
    glibc-langpack-en:
        2.34-40.el9
    glibc-minimal-langpack:
        2.34-40.el9
    gmp:
        1:6.2.0-10.el9
    gnupg2:
        2.3.3-2.el9_0
    gnutls:
        3.7.6-12.el9_0
    gpg-pubkey.(none):
        350d275d-6279464b,9d30d7b6-62d757ff
    gpgme:
        1.15.1-6.el9
    grep:
        3.6-5.el9
    groff-base:
        1.22.4-10.el9
    gzip:
        1.12-1.el9
    hostname:
        3.23-6.el9
    hwdata:
        0.348-9.5.el9
    ima-evm-utils:
        1.4-4.el9
    iputils:
        20210202-7.el9
    json-c:
        0.14-11.el9
    kbd:
        2.4.0-8.el9
    kbd-misc:
        2.4.0-8.el9
    keyutils-libs:
        1.6.1-4.el9
    kmod:
        28-7.el9
    kmod-libs:
        28-7.el9
    krb5-libs:
        1.19.1-24.el9_1
    langpacks-core-en:
        3.0-16.el9
    langpacks-core-font-en:
        3.0-16.el9
    langpacks-en:
        3.0-16.el9
    less:
        590-1.el9_0
    libacl:
        2.3.1-3.el9
    libarchive:
        3.5.3-3.el9
    libassuan:
        2.5.5-3.el9
    libattr:
        2.5.1-3.el9
    libblkid:
        2.37.4-9.el9
    libbrotli:
        1.0.9-6.el9
    libcap:
        2.48-8.el9
    libcap-ng:
        0.8.2-7.el9
    libcbor:
        0.7.0-5.el9
    libcom_err:
        1.46.5-3.el9
    libcomps:
        0.1.18-1.el9
    libcurl:
        7.76.1-19.el9
    libdb:
        5.3.28-53.el9
    libdnf:
        0.67.0-3.el9
    libeconf:
        0.4.1-2.el9
    libedit:
        3.1-37.20210216cvs.el9
    libevent:
        2.1.12-6.el9
    libfdisk:
        2.37.4-9.el9
    libffi:
        3.4.2-7.el9
    libfido2:
        1.6.0-7.el9
    libgcc:
        11.3.1-2.1.el9
    libgcrypt:
        1.10.0-8.el9_0
    libgomp:
        11.3.1-2.1.el9
    libgpg-error:
        1.42-5.el9
    libidn2:
        2.3.0-7.el9
    libksba:
        1.5.1-5.el9_0
    libmodulemd:
        2.13.0-2.el9
    libmount:
        2.37.4-9.el9
    libnghttp2:
        1.43.0-5.el9
    libpkgconf:
        1.7.3-9.el9
    libpsl:
        0.21.1-5.el9
    libpwquality:
        1.4.4-8.el9
    librepo:
        1.14.2-3.el9
    libreport-filesystem:
        2.15.2-6.el9.rocky.0.2
    libseccomp:
        2.5.2-2.el9
    libselinux:
        3.4-3.el9
    libsemanage:
        3.4-2.el9
    libsepol:
        3.4-1.1.el9
    libsigsegv:
        2.13-4.el9
    libsmartcols:
        2.37.4-9.el9
    libsolv:
        0.7.22-1.el9
    libssh:
        0.9.6-3.el9
    libssh-config:
        0.9.6-3.el9
    libstdc++:
        11.3.1-2.1.el9
    libtasn1:
        4.16.0-7.el9
    libunistring:
        0.9.10-15.el9
    libutempter:
        1.2.1-6.el9
    libuuid:
        2.37.4-9.el9
    libverto:
        0.3.2-3.el9
    libxcrypt:
        4.4.18-3.el9
    libxcrypt-compat:
        4.4.18-3.el9
    libxml2:
        2.9.13-2.el9
    libyaml:
        0.2.5-7.el9
    libzstd:
        1.5.1-2.el9
    lua-libs:
        5.4.2-4.el9_0.3
    lz4-libs:
        1.9.3-5.el9
    mpfr:
        4.1.0-7.el9
    ncurses:
        6.2-8.20210508.el9
    ncurses-base:
        6.2-8.20210508.el9
    ncurses-libs:
        6.2-8.20210508.el9
    net-tools:
        2.0-0.62.20160912git.el9
    nettle:
        3.8-3.el9_0
    npth:
        1.6-8.el9
    openldap:
        2.6.2-3.el9
    openldap-compat:
        2.6.2-3.el9
    openssh:
        8.7p1-24.el9_1
    openssh-clients:
        8.7p1-24.el9_1
    openssh-server:
        8.7p1-24.el9_1
    openssl:
        1:3.0.1-43.el9_0
    openssl-devel:
        1:3.0.1-43.el9_0
    openssl-libs:
        1:3.0.1-43.el9_0
    p11-kit:
        0.24.1-2.el9
    p11-kit-trust:
        0.24.1-2.el9
    pam:
        1.5.1-12.el9
    pciutils:
        3.7.0-5.el9
    pciutils-libs:
        3.7.0-5.el9
    pcre:
        8.44-3.el9.3
    pcre2:
        10.40-2.el9
    pcre2-syntax:
        10.40-2.el9
    perl-AutoLoader:
        5.74-479.el9
    perl-B:
        1.80-479.el9
    perl-Carp:
        1.50-460.el9
    perl-Class-Struct:
        0.66-479.el9
    perl-Data-Dumper:
        2.174-462.el9
    perl-Digest:
        1.19-4.el9
    perl-Digest-MD5:
        2.58-4.el9
    perl-DynaLoader:
        1.47-479.el9
    perl-Encode:
        4:3.08-462.el9
    perl-Errno:
        1.30-479.el9
    perl-Error:
        1:0.17029-7.el9
    perl-Exporter:
        5.74-461.el9
    perl-Fcntl:
        1.13-479.el9
    perl-File-Basename:
        2.85-479.el9
    perl-File-Find:
        1.37-479.el9
    perl-File-Path:
        2.18-4.el9
    perl-File-Temp:
        1:0.231.100-4.el9
    perl-File-stat:
        1.09-479.el9
    perl-FileHandle:
        2.03-479.el9
    perl-Getopt-Long:
        1:2.52-4.el9
    perl-Getopt-Std:
        1.12-479.el9
    perl-Git:
        2.31.1-2.el9.2
    perl-HTTP-Tiny:
        0.076-460.el9
    perl-IO:
        1.43-479.el9
    perl-IO-Socket-IP:
        0.41-5.el9
    perl-IO-Socket-SSL:
        2.073-1.el9
    perl-IPC-Open3:
        1.21-479.el9
    perl-MIME-Base64:
        3.16-4.el9
    perl-Mozilla-CA:
        20200520-6.el9
    perl-NDBM_File:
        1.15-479.el9
    perl-Net-SSLeay:
        1.92-2.el9
    perl-POSIX:
        1.94-479.el9
    perl-PathTools:
        3.78-461.el9
    perl-Pod-Escapes:
        1:1.07-460.el9
    perl-Pod-Perldoc:
        3.28.01-461.el9
    perl-Pod-Simple:
        1:3.42-4.el9
    perl-Pod-Usage:
        4:2.01-4.el9
    perl-Scalar-List-Utils:
        4:1.56-461.el9
    perl-SelectSaver:
        1.02-479.el9
    perl-Socket:
        4:2.031-4.el9
    perl-Storable:
        1:3.21-460.el9
    perl-Symbol:
        1.08-479.el9
    perl-Term-ANSIColor:
        5.01-461.el9
    perl-Term-Cap:
        1.17-460.el9
    perl-TermReadKey:
        2.38-11.el9
    perl-Text-ParseWords:
        3.30-460.el9
    perl-Text-Tabs+Wrap:
        2013.0523-460.el9
    perl-Time-Local:
        2:1.300-7.el9
    perl-URI:
        5.09-3.el9
    perl-base:
        2.27-479.el9
    perl-constant:
        1.33-461.el9
    perl-if:
        0.60.800-479.el9
    perl-interpreter:
        4:5.32.1-479.el9
    perl-lib:
        0.65-479.el9
    perl-libnet:
        3.13-4.el9
    perl-libs:
        4:5.32.1-479.el9
    perl-mro:
        1.23-479.el9
    perl-overload:
        1.31-479.el9
    perl-overloading:
        0.02-479.el9
    perl-parent:
        1:0.238-460.el9
    perl-podlators:
        1:4.14-460.el9
    perl-subs:
        1.03-479.el9
    perl-vars:
        1.05-479.el9
    pkgconf:
        1.7.3-9.el9
    pkgconf-m4:
        1.7.3-9.el9
    pkgconf-pkg-config:
        1.7.3-9.el9
    popt:
        1.18-8.el9
    procps-ng:
        3.3.17-8.el9
    publicsuffix-list-dafsa:
        20210518-3.el9
    python3:
        3.9.14-1.el9_1.1
    python3-dateutil:
        1:2.8.1-6.el9
    python3-dbus:
        1.2.18-2.el9
    python3-devel:
        3.9.14-1.el9_1.1
    python3-dnf:
        4.12.0-4.el9
    python3-dnf-plugins-core:
        4.1.0-3.el9
    python3-gpg:
        1.15.1-6.el9
    python3-hawkey:
        0.67.0-3.el9
    python3-libcomps:
        0.1.18-1.el9
    python3-libdnf:
        0.67.0-3.el9
    python3-libs:
        3.9.14-1.el9_1.1
    python3-pip:
        21.2.3-6.el9
    python3-pip-wheel:
        21.2.3-6.el9
    python3-rpm:
        4.16.1.3-19.el9_1
    python3-setuptools:
        53.0.0-10.el9
    python3-setuptools-wheel:
        53.0.0-10.el9
    python3-six:
        1.15.0-9.el9
    readline:
        8.1-4.el9
    rocky-gpg-keys:
        9.1-1.10.el9
    rocky-release:
        9.1-1.10.el9
    rocky-repos:
        9.1-1.10.el9
    rootfiles:
        8.1-31.el9
    rpm:
        4.16.1.3-19.el9_1
    rpm-build-libs:
        4.16.1.3-19.el9_1
    rpm-libs:
        4.16.1.3-19.el9_1
    rpm-plugin-systemd-inhibit:
        4.16.1.3-19.el9_1
    rpm-sign-libs:
        4.16.1.3-19.el9_1
    salt:
        3005+494.ga1a07d1c8c-1.el9
    salt-minion:
        3005+494.ga1a07d1c8c-1.el9
    sed:
        4.8-9.el9
    setup:
        2.13.7-7.el9
    shadow-utils:
        2:4.9-5.el9
    sqlite-libs:
        3.34.1-5.el9
    sudo:
        1.9.5p2-7.el9
    systemd:
        250-12.el9_1
    systemd-libs:
        250-12.el9_1
    systemd-pam:
        250-12.el9_1
    systemd-rpm-macros:
        250-12.el9_1
    systemd-udev:
        250-12.el9_1
    tar:
        2:1.34-5.el9
    tpm2-tss:
        3.0.3-8.el9
    tzdata:
        2022g-1.el9_1
    util-linux:
        2.37.4-9.el9
    util-linux-core:
        2.37.4-9.el9
    vim-minimal:
        2:8.2.2637-16.el9_0.3
    which:
        2.21-28.el9
    xz-libs:
        5.2.5-8.el9_0
    yum:
        4.12.0-4.el9
    yum-utils:
        4.1.0-3.el9
    zlib:
        1.2.11-34.el9
# salt-call --local pip.list
local:
    ----------
    pip:
        22.2.2
# salt-call --local locale.list_avail
local:
    - C
    - C.utf8
    - POSIX
    - en_AG
    - en_AU
    - en_AU.utf8
    - en_BW
    - en_BW.utf8
    - en_CA
    - en_CA.utf8
    - en_DK
    - en_DK.utf8
    - en_GB
    - en_GB.iso885915
    - en_GB.utf8
    - en_HK
    - en_HK.utf8
    - en_IE
    - en_IE.utf8
    - en_IE@euro
    - en_IL
    - en_IN
    - en_NG
    - en_NZ
    - en_NZ.utf8
    - en_PH
    - en_PH.utf8
    - en_SC.utf8
    - en_SG
    - en_SG.utf8
    - en_US
    - en_US.iso885915
    - en_US.utf8
    - en_ZA
    - en_ZA.utf8
    - en_ZM
    - en_ZW
    - en_ZW.utf8
